test: 2935730 2935730 Profiler: Disabled
test: 2935730 2935730 Thread Model: fcs
test: 2935730 2935730 Pool: cycle
test: 2935730 2935730 Pool workers: 98304
test: 2935730 2935730 Total workers: 98400
test: 2935730 2935730 Cores: 96
test: 2935730 2935730 Per-core iters: Unlimited
test: 2935730 2935730 Per-core comput iters: 10
test: 2935730 2935730 Skew: none
test: 2935730 2935730 Validate: Disabled
test: 2935730 2935730 Timeout: 30s
test: 2935730 2935730 Timeout!
time: 30000113720
Total iters: 401901401
Iters/s: 13396713
Stalls: 0
ictx:10579941
vctx:392514965
return code for repetition 1: 0
time:30000113720
lps:13396713
Stalls: 0
ictx:10579941
vctx:392514965
------------------------------
test: 3034143 3034143 Profiler: Disabled
test: 3034143 3034143 Thread Model: fcs
test: 3034143 3034143 Pool: cycle
test: 3034143 3034143 Pool workers: 98304
test: 3034143 3034143 Total workers: 98400
test: 3034143 3034143 Cores: 96
test: 3034143 3034143 Per-core iters: Unlimited
test: 3034143 3034143 Per-core comput iters: 10
test: 3034143 3034143 Skew: none
test: 3034143 3034143 Validate: Disabled
test: 3034143 3034143 Timeout: 30s
test: 3034143 3034143 Timeout!
time: 30000121085
Total iters: 412905657
Iters/s: 13763521
Stalls: 0
ictx:11240396
vctx:402945872
return code for repetition 2: 0
time:30000121085
lps:13763521
Stalls: 0
ictx:11240396
vctx:402945872
------------------------------
test: 3132556 3132556 Profiler: Disabled
test: 3132556 3132556 Thread Model: fcs
test: 3132556 3132556 Pool: cycle
test: 3132556 3132556 Pool workers: 98304
test: 3132556 3132556 Total workers: 98400
test: 3132556 3132556 Cores: 96
test: 3132556 3132556 Per-core iters: Unlimited
test: 3132556 3132556 Per-core comput iters: 10
test: 3132556 3132556 Skew: none
test: 3132556 3132556 Validate: Disabled
test: 3132556 3132556 Timeout: 30s
test: 3132556 3132556 Timeout!
time: 30000110476
Total iters: 424882173
Iters/s: 14162739
Stalls: 0
ictx:10901811
vctx:415203855
return code for repetition 3: 0
time:30000110476
lps:14162739
Stalls: 0
ictx:10901811
vctx:415203855
------------------------------
test: 3230970 3230970 Profiler: Disabled
test: 3230970 3230970 Thread Model: fcs
test: 3230970 3230970 Pool: cycle
test: 3230970 3230970 Pool workers: 98304
test: 3230970 3230970 Total workers: 98400
test: 3230970 3230970 Cores: 96
test: 3230970 3230970 Per-core iters: Unlimited
test: 3230970 3230970 Per-core comput iters: 10
test: 3230970 3230970 Skew: none
test: 3230970 3230970 Validate: Disabled
test: 3230970 3230970 Timeout: 30s
test: 3230970 3230970 Timeout!
time: 30000098935
Total iters: 406612113
Iters/s: 13553737
Stalls: 0
ictx:10922708
vctx:396986454
return code for repetition 4: 0
time:30000098935
lps:13553737
Stalls: 0
ictx:10922708
vctx:396986454
------------------------------
test: 3329392 3329392 Profiler: Disabled
test: 3329392 3329392 Thread Model: fcs
test: 3329392 3329392 Pool: cycle
test: 3329392 3329392 Pool workers: 98304
test: 3329392 3329392 Total workers: 98400
test: 3329392 3329392 Cores: 96
test: 3329392 3329392 Per-core iters: Unlimited
test: 3329392 3329392 Per-core comput iters: 10
test: 3329392 3329392 Skew: none
test: 3329392 3329392 Validate: Disabled
test: 3329392 3329392 Timeout: 30s
test: 3329392 3329392 Timeout!
time: 30000097652
Total iters: 390092994
Iters/s: 13003099
Stalls: 0
ictx:10825797
vctx:380507908
return code for repetition 5: 0
time:30000097652
lps:13003099
Stalls: 0
ictx:10825797
vctx:380507908
------------------------------
test: 3427805 3427805 Profiler: Disabled
test: 3427805 3427805 Thread Model: fcs
test: 3427805 3427805 Pool: cycle
test: 3427805 3427805 Pool workers: 98304
test: 3427805 3427805 Total workers: 98400
test: 3427805 3427805 Cores: 96
test: 3427805 3427805 Per-core iters: Unlimited
test: 3427805 3427805 Per-core comput iters: 10
test: 3427805 3427805 Skew: none
test: 3427805 3427805 Validate: Disabled
test: 3427805 3427805 Timeout: 30s
test: 3427805 3427805 Timeout!
time: 30000121000
Total iters: 442177997
Iters/s: 14739266
Stalls: 0
ictx:12106921
vctx:431443517
return code for repetition 6: 0
time:30000121000
lps:14739266
Stalls: 0
ictx:12106921
vctx:431443517
------------------------------
test: 3526219 3526219 Profiler: Disabled
test: 3526219 3526219 Thread Model: fcs
test: 3526219 3526219 Pool: cycle
test: 3526219 3526219 Pool workers: 98304
test: 3526219 3526219 Total workers: 98400
test: 3526219 3526219 Cores: 96
test: 3526219 3526219 Per-core iters: Unlimited
test: 3526219 3526219 Per-core comput iters: 10
test: 3526219 3526219 Skew: none
test: 3526219 3526219 Validate: Disabled
test: 3526219 3526219 Timeout: 30s
test: 3526219 3526219 Timeout!
time: 30000090131
Total iters: 400495959
Iters/s: 13349865
Stalls: 0
ictx:10850161
vctx:390938672
return code for repetition 7: 0
time:30000090131
lps:13349865
Stalls: 0
ictx:10850161
vctx:390938672
------------------------------
test: 3624632 3624632 Profiler: Disabled
test: 3624632 3624632 Thread Model: fcs
test: 3624632 3624632 Pool: cycle
test: 3624632 3624632 Pool workers: 98304
test: 3624632 3624632 Total workers: 98400
test: 3624632 3624632 Cores: 96
test: 3624632 3624632 Per-core iters: Unlimited
test: 3624632 3624632 Per-core comput iters: 10
test: 3624632 3624632 Skew: none
test: 3624632 3624632 Validate: Disabled
test: 3624632 3624632 Timeout: 30s
test: 3624632 3624632 Timeout!
time: 30000112569
Total iters: 416933389
Iters/s: 13897779
Stalls: 0
ictx:12562220
vctx:405911459
return code for repetition 8: 0
time:30000112569
lps:13897779
Stalls: 0
ictx:12562220
vctx:405911459
------------------------------
test: 3723045 3723045 Profiler: Disabled
test: 3723045 3723045 Thread Model: fcs
test: 3723045 3723045 Pool: cycle
test: 3723045 3723045 Pool workers: 98304
test: 3723045 3723045 Total workers: 98400
test: 3723045 3723045 Cores: 96
test: 3723045 3723045 Per-core iters: Unlimited
test: 3723045 3723045 Per-core comput iters: 10
test: 3723045 3723045 Skew: none
test: 3723045 3723045 Validate: Disabled
test: 3723045 3723045 Timeout: 30s
test: 3723045 3723045 Timeout!
time: 30000122774
Total iters: 393299377
Iters/s: 13109979
Stalls: 0
ictx:11469033
vctx:383190608
return code for repetition 9: 0
time:30000122774
lps:13109979
Stalls: 0
ictx:11469033
vctx:383190608
------------------------------
test: 3821458 3821458 Profiler: Disabled
test: 3821458 3821458 Thread Model: fcs
test: 3821458 3821458 Pool: cycle
test: 3821458 3821458 Pool workers: 98304
test: 3821458 3821458 Total workers: 98400
test: 3821458 3821458 Cores: 96
test: 3821458 3821458 Per-core iters: Unlimited
test: 3821458 3821458 Per-core comput iters: 10
test: 3821458 3821458 Skew: none
test: 3821458 3821458 Validate: Disabled
test: 3821458 3821458 Timeout: 30s
test: 3821458 3821458 Timeout!
time: 30000121169
Total iters: 380561020
Iters/s: 12685367
Stalls: 0
ictx:10583535
vctx:371177603
return code for repetition 10: 0
time:30000121169
lps:12685367
Stalls: 0
ictx:10583535
vctx:371177603
------------------------------
