test: 2682145 2682145 Profiler: Disabled
test: 2682145 2682145 Thread Model: fcs-bypass
test: 2682145 2682145 Pool: cycle
test: 2682145 2682145 Pool workers: 98304
test: 2682145 2682145 Total workers: 98400
test: 2682145 2682145 Cores: 96
test: 2682145 2682145 Per-core iters: Unlimited
test: 2682145 2682145 Per-core comput iters: 100
test: 2682145 2682145 Skew: none
test: 2682145 2682145 Validate: Disabled
test: 2682145 2682145 Timeout: 30s
test: 2682145 2682145 Timeout!
time: 30006362337
Total iters: 538137529
Iters/s: 17937917
Stalls: 0
ictx:1245639
vctx:8800146
return code for repetition 1: 0
time:30006362337
lps:17937917
Stalls: 0
ictx:1245639
vctx:8800146
------------------------------
test: 2780558 2780558 Profiler: Disabled
test: 2780558 2780558 Thread Model: fcs-bypass
test: 2780558 2780558 Pool: cycle
test: 2780558 2780558 Pool workers: 98304
test: 2780558 2780558 Total workers: 98400
test: 2780558 2780558 Cores: 96
test: 2780558 2780558 Per-core iters: Unlimited
test: 2780558 2780558 Per-core comput iters: 100
test: 2780558 2780558 Skew: none
test: 2780558 2780558 Validate: Disabled
test: 2780558 2780558 Timeout: 30s
test: 2780558 2780558 Timeout!
time: 30000876997
Total iters: 536130827
Iters/s: 17871027
Stalls: 0
ictx:1189126
vctx:8704352
return code for repetition 2: 0
time:30000876997
lps:17871027
Stalls: 0
ictx:1189126
vctx:8704352
------------------------------
test: 2878971 2878971 Profiler: Disabled
test: 2878971 2878971 Thread Model: fcs-bypass
test: 2878971 2878971 Pool: cycle
test: 2878971 2878971 Pool workers: 98304
test: 2878971 2878971 Total workers: 98400
test: 2878971 2878971 Cores: 96
test: 2878971 2878971 Per-core iters: Unlimited
test: 2878971 2878971 Per-core comput iters: 100
test: 2878971 2878971 Skew: none
test: 2878971 2878971 Validate: Disabled
test: 2878971 2878971 Timeout: 30s
test: 2878971 2878971 Timeout!
time: 30004471837
Total iters: 535564320
Iters/s: 17852144
Stalls: 0
ictx:1203193
vctx:8821376
return code for repetition 3: 0
time:30004471837
lps:17852144
Stalls: 0
ictx:1203193
vctx:8821376
------------------------------
test: 2977384 2977384 Profiler: Disabled
test: 2977384 2977384 Thread Model: fcs-bypass
test: 2977384 2977384 Pool: cycle
test: 2977384 2977384 Pool workers: 98304
test: 2977384 2977384 Total workers: 98400
test: 2977384 2977384 Cores: 96
test: 2977384 2977384 Per-core iters: Unlimited
test: 2977384 2977384 Per-core comput iters: 100
test: 2977384 2977384 Skew: none
test: 2977384 2977384 Validate: Disabled
test: 2977384 2977384 Timeout: 30s
test: 2977384 2977384 Timeout!
time: 30004009998
Total iters: 536055884
Iters/s: 17868529
Stalls: 0
ictx:1197275
vctx:8711829
return code for repetition 4: 0
time:30004009998
lps:17868529
Stalls: 0
ictx:1197275
vctx:8711829
------------------------------
test: 3075797 3075797 Profiler: Disabled
test: 3075797 3075797 Thread Model: fcs-bypass
test: 3075797 3075797 Pool: cycle
test: 3075797 3075797 Pool workers: 98304
test: 3075797 3075797 Total workers: 98400
test: 3075797 3075797 Cores: 96
test: 3075797 3075797 Per-core iters: Unlimited
test: 3075797 3075797 Per-core comput iters: 100
test: 3075797 3075797 Skew: none
test: 3075797 3075797 Validate: Disabled
test: 3075797 3075797 Timeout: 30s
test: 3075797 3075797 Timeout!
time: 30005894750
Total iters: 535123197
Iters/s: 17837439
Stalls: 0
ictx:1198634
vctx:9199949
return code for repetition 5: 0
time:30005894750
lps:17837439
Stalls: 0
ictx:1198634
vctx:9199949
------------------------------
test: 3174211 3174211 Profiler: Disabled
test: 3174211 3174211 Thread Model: fcs-bypass
test: 3174211 3174211 Pool: cycle
test: 3174211 3174211 Pool workers: 98304
test: 3174211 3174211 Total workers: 98400
test: 3174211 3174211 Cores: 96
test: 3174211 3174211 Per-core iters: Unlimited
test: 3174211 3174211 Per-core comput iters: 100
test: 3174211 3174211 Skew: none
test: 3174211 3174211 Validate: Disabled
test: 3174211 3174211 Timeout: 30s
test: 3174211 3174211 Timeout!
time: 30000762676
Total iters: 535847321
Iters/s: 17861577
Stalls: 0
ictx:1160546
vctx:8988701
return code for repetition 6: 0
time:30000762676
lps:17861577
Stalls: 0
ictx:1160546
vctx:8988701
------------------------------
test: 3272624 3272624 Profiler: Disabled
test: 3272624 3272624 Thread Model: fcs-bypass
test: 3272624 3272624 Pool: cycle
test: 3272624 3272624 Pool workers: 98304
test: 3272624 3272624 Total workers: 98400
test: 3272624 3272624 Cores: 96
test: 3272624 3272624 Per-core iters: Unlimited
test: 3272624 3272624 Per-core comput iters: 100
test: 3272624 3272624 Skew: none
test: 3272624 3272624 Validate: Disabled
test: 3272624 3272624 Timeout: 30s
test: 3272624 3272624 Timeout!
time: 30007349433
Total iters: 535322544
Iters/s: 17844084
Stalls: 0
ictx:1151180
vctx:9204681
return code for repetition 7: 0
time:30007349433
lps:17844084
Stalls: 0
ictx:1151180
vctx:9204681
------------------------------
test: 3371038 3371038 Profiler: Disabled
test: 3371038 3371038 Thread Model: fcs-bypass
test: 3371038 3371038 Pool: cycle
test: 3371038 3371038 Pool workers: 98304
test: 3371038 3371038 Total workers: 98400
test: 3371038 3371038 Cores: 96
test: 3371038 3371038 Per-core iters: Unlimited
test: 3371038 3371038 Per-core comput iters: 100
test: 3371038 3371038 Skew: none
test: 3371038 3371038 Validate: Disabled
test: 3371038 3371038 Timeout: 30s
test: 3371038 3371038 Timeout!
time: 30000838752
Total iters: 536444589
Iters/s: 17881486
Stalls: 0
ictx:1165173
vctx:8737990
return code for repetition 8: 0
time:30000838752
lps:17881486
Stalls: 0
ictx:1165173
vctx:8737990
------------------------------
test: 3469451 3469451 Profiler: Disabled
test: 3469451 3469451 Thread Model: fcs-bypass
test: 3469451 3469451 Pool: cycle
test: 3469451 3469451 Pool workers: 98304
test: 3469451 3469451 Total workers: 98400
test: 3469451 3469451 Cores: 96
test: 3469451 3469451 Per-core iters: Unlimited
test: 3469451 3469451 Per-core comput iters: 100
test: 3469451 3469451 Skew: none
test: 3469451 3469451 Validate: Disabled
test: 3469451 3469451 Timeout: 30s
test: 3469451 3469451 Timeout!
time: 30000652621
Total iters: 536325801
Iters/s: 17877526
Stalls: 0
ictx:1202638
vctx:8814137
return code for repetition 9: 0
time:30000652621
lps:17877526
Stalls: 0
ictx:1202638
vctx:8814137
------------------------------
test: 3567864 3567864 Profiler: Disabled
test: 3567864 3567864 Thread Model: fcs-bypass
test: 3567864 3567864 Pool: cycle
test: 3567864 3567864 Pool workers: 98304
test: 3567864 3567864 Total workers: 98400
test: 3567864 3567864 Cores: 96
test: 3567864 3567864 Per-core iters: Unlimited
test: 3567864 3567864 Per-core comput iters: 100
test: 3567864 3567864 Skew: none
test: 3567864 3567864 Validate: Disabled
test: 3567864 3567864 Timeout: 30s
test: 3567864 3567864 Timeout!
time: 30006946938
Total iters: 537752140
Iters/s: 17925071
Stalls: 0
ictx:1149642
vctx:8522239
return code for repetition 10: 0
time:30006946938
lps:17925071
Stalls: 0
ictx:1149642
vctx:8522239
------------------------------
