test: 3668465 3668465 Profiler: Disabled
test: 3668465 3668465 Thread Model: nop
test: 3668465 3668465 Pool: nop
test: 3668465 3668465 Pool workers: 0
test: 3668465 3668465 Total workers: 96
test: 3668465 3668465 Cores: 96
test: 3668465 3668465 Per-core iters: Unlimited
test: 3668465 3668465 Per-core comput iters: 100
test: 3668465 3668465 Skew: none
test: 3668465 3668465 Validate: Disabled
test: 3668465 3668465 Timeout: 30s
test: 3668465 3668465 Timeout!
time: 30001028074
Total iters: 772193608
Iters/s: 25739786
Stalls: 0
ictx:1401
vctx:82
return code for repetition 1: 0
time:30001028074
lps:25739786
Stalls: 0
ictx:1401
vctx:82
------------------------------
test: 3668574 3668574 Profiler: Disabled
test: 3668574 3668574 Thread Model: nop
test: 3668574 3668574 Pool: nop
test: 3668574 3668574 Pool workers: 0
test: 3668574 3668574 Total workers: 96
test: 3668574 3668574 Cores: 96
test: 3668574 3668574 Per-core iters: Unlimited
test: 3668574 3668574 Per-core comput iters: 100
test: 3668574 3668574 Skew: none
test: 3668574 3668574 Validate: Disabled
test: 3668574 3668574 Timeout: 30s
test: 3668574 3668574 Timeout!
time: 30001053987
Total iters: 772200692
Iters/s: 25740023
Stalls: 0
ictx:1494
vctx:50
return code for repetition 2: 0
time:30001053987
lps:25740023
Stalls: 0
ictx:1494
vctx:50
------------------------------
test: 3668683 3668683 Profiler: Disabled
test: 3668683 3668683 Thread Model: nop
test: 3668683 3668683 Pool: nop
test: 3668683 3668683 Pool workers: 0
test: 3668683 3668683 Total workers: 96
test: 3668683 3668683 Cores: 96
test: 3668683 3668683 Per-core iters: Unlimited
test: 3668683 3668683 Per-core comput iters: 100
test: 3668683 3668683 Skew: none
test: 3668683 3668683 Validate: Disabled
test: 3668683 3668683 Timeout: 30s
test: 3668683 3668683 Timeout!
time: 30001238503
Total iters: 772088760
Iters/s: 25736292
Stalls: 0
ictx:1386
vctx:97
return code for repetition 3: 0
time:30001238503
lps:25736292
Stalls: 0
ictx:1386
vctx:97
------------------------------
test: 3668792 3668792 Profiler: Disabled
test: 3668792 3668792 Thread Model: nop
test: 3668792 3668792 Pool: nop
test: 3668792 3668792 Pool workers: 0
test: 3668792 3668792 Total workers: 96
test: 3668792 3668792 Cores: 96
test: 3668792 3668792 Per-core iters: Unlimited
test: 3668792 3668792 Per-core comput iters: 100
test: 3668792 3668792 Skew: none
test: 3668792 3668792 Validate: Disabled
test: 3668792 3668792 Timeout: 30s
test: 3668792 3668792 Timeout!
time: 30001454259
Total iters: 772139345
Iters/s: 25737978
Stalls: 0
ictx:1502
vctx:92
return code for repetition 4: 0
time:30001454259
lps:25737978
Stalls: 0
ictx:1502
vctx:92
------------------------------
test: 3668901 3668901 Profiler: Disabled
test: 3668901 3668901 Thread Model: nop
test: 3668901 3668901 Pool: nop
test: 3668901 3668901 Pool workers: 0
test: 3668901 3668901 Total workers: 96
test: 3668901 3668901 Cores: 96
test: 3668901 3668901 Per-core iters: Unlimited
test: 3668901 3668901 Per-core comput iters: 100
test: 3668901 3668901 Skew: none
test: 3668901 3668901 Validate: Disabled
test: 3668901 3668901 Timeout: 30s
test: 3668901 3668901 Timeout!
time: 30001443151
Total iters: 772173865
Iters/s: 25739128
Stalls: 0
ictx:1384
vctx:119
return code for repetition 5: 0
time:30001443151
lps:25739128
Stalls: 0
ictx:1384
vctx:119
------------------------------
test: 3669010 3669010 Profiler: Disabled
test: 3669010 3669010 Thread Model: nop
test: 3669010 3669010 Pool: nop
test: 3669010 3669010 Pool workers: 0
test: 3669010 3669010 Total workers: 96
test: 3669010 3669010 Cores: 96
test: 3669010 3669010 Per-core iters: Unlimited
test: 3669010 3669010 Per-core comput iters: 100
test: 3669010 3669010 Skew: none
test: 3669010 3669010 Validate: Disabled
test: 3669010 3669010 Timeout: 30s
test: 3669010 3669010 Timeout!
time: 30001435642
Total iters: 772143634
Iters/s: 25738121
Stalls: 0
ictx:1499
vctx:33
return code for repetition 6: 0
time:30001435642
lps:25738121
Stalls: 0
ictx:1499
vctx:33
------------------------------
test: 3669119 3669119 Profiler: Disabled
test: 3669119 3669119 Thread Model: nop
test: 3669119 3669119 Pool: nop
test: 3669119 3669119 Pool workers: 0
test: 3669119 3669119 Total workers: 96
test: 3669119 3669119 Cores: 96
test: 3669119 3669119 Per-core iters: Unlimited
test: 3669119 3669119 Per-core comput iters: 100
test: 3669119 3669119 Skew: none
test: 3669119 3669119 Validate: Disabled
test: 3669119 3669119 Timeout: 30s
test: 3669119 3669119 Timeout!
time: 30001484593
Total iters: 772226028
Iters/s: 25740867
Stalls: 0
ictx:1396
vctx:86
return code for repetition 7: 0
time:30001484593
lps:25740867
Stalls: 0
ictx:1396
vctx:86
------------------------------
test: 3669228 3669228 Profiler: Disabled
test: 3669228 3669228 Thread Model: nop
test: 3669228 3669228 Pool: nop
test: 3669228 3669228 Pool workers: 0
test: 3669228 3669228 Total workers: 96
test: 3669228 3669228 Cores: 96
test: 3669228 3669228 Per-core iters: Unlimited
test: 3669228 3669228 Per-core comput iters: 100
test: 3669228 3669228 Skew: none
test: 3669228 3669228 Validate: Disabled
test: 3669228 3669228 Timeout: 30s
test: 3669228 3669228 Timeout!
time: 30001402723
Total iters: 772175558
Iters/s: 25739185
Stalls: 0
ictx:1504
vctx:27
return code for repetition 8: 0
time:30001402723
lps:25739185
Stalls: 0
ictx:1504
vctx:27
------------------------------
test: 3669337 3669337 Profiler: Disabled
test: 3669337 3669337 Thread Model: nop
test: 3669337 3669337 Pool: nop
test: 3669337 3669337 Pool workers: 0
test: 3669337 3669337 Total workers: 96
test: 3669337 3669337 Cores: 96
test: 3669337 3669337 Per-core iters: Unlimited
test: 3669337 3669337 Per-core comput iters: 100
test: 3669337 3669337 Skew: none
test: 3669337 3669337 Validate: Disabled
test: 3669337 3669337 Timeout: 30s
test: 3669337 3669337 Timeout!
time: 30001441023
Total iters: 772137296
Iters/s: 25737909
Stalls: 0
ictx:1397
vctx:78
return code for repetition 9: 0
time:30001441023
lps:25737909
Stalls: 0
ictx:1397
vctx:78
------------------------------
test: 3669446 3669446 Profiler: Disabled
test: 3669446 3669446 Thread Model: nop
test: 3669446 3669446 Pool: nop
test: 3669446 3669446 Pool workers: 0
test: 3669446 3669446 Total workers: 96
test: 3669446 3669446 Cores: 96
test: 3669446 3669446 Per-core iters: Unlimited
test: 3669446 3669446 Per-core comput iters: 100
test: 3669446 3669446 Skew: none
test: 3669446 3669446 Validate: Disabled
test: 3669446 3669446 Timeout: 30s
test: 3669446 3669446 Timeout!
time: 30001488926
Total iters: 772221772
Iters/s: 25740725
Stalls: 0
ictx:1499
vctx:36
return code for repetition 10: 0
time:30001488926
lps:25740725
Stalls: 0
ictx:1499
vctx:36
------------------------------
