test: 1951592 1951592 Profiler: Disabled
test: 1951592 1951592 Thread Model: pthread
test: 1951592 1951592 Pool: cycle
test: 1951592 1951592 Pool workers: 98304
test: 1951592 1951592 Total workers: 98400
test: 1951592 1951592 Cores: 96
test: 1951592 1951592 Per-core iters: Unlimited
test: 1951592 1951592 Per-core comput iters: 10
test: 1951592 1951592 Skew: none
test: 1951592 1951592 Validate: Disabled
test: 1951592 1951592 Timeout: 30s
test: 1951592 1951592 Timeout!
time: 30000301495
Total iters: 62701532
Iters/s: 2090051
Stalls: 0
ictx:26345884
vctx:62814971
return code for repetition 1: 0
time:30000301495
lps:2090051
Stalls: 0
ictx:26345884
vctx:62814971
------------------------------
test: 2050005 2050005 Profiler: Disabled
test: 2050005 2050005 Thread Model: pthread
test: 2050005 2050005 Pool: cycle
test: 2050005 2050005 Pool workers: 98304
test: 2050005 2050005 Total workers: 98400
test: 2050005 2050005 Cores: 96
test: 2050005 2050005 Per-core iters: Unlimited
test: 2050005 2050005 Per-core comput iters: 10
test: 2050005 2050005 Skew: none
test: 2050005 2050005 Validate: Disabled
test: 2050005 2050005 Timeout: 30s
test: 2050005 2050005 Timeout!
time: 30000284227
Total iters: 62732909
Iters/s: 2091096
Stalls: 0
ictx:26352231
vctx:62836766
return code for repetition 2: 0
time:30000284227
lps:2091096
Stalls: 0
ictx:26352231
vctx:62836766
------------------------------
test: 2148420 2148420 Profiler: Disabled
test: 2148420 2148420 Thread Model: pthread
test: 2148420 2148420 Pool: cycle
test: 2148420 2148420 Pool workers: 98304
test: 2148420 2148420 Total workers: 98400
test: 2148420 2148420 Cores: 96
test: 2148420 2148420 Per-core iters: Unlimited
test: 2148420 2148420 Per-core comput iters: 10
test: 2148420 2148420 Skew: none
test: 2148420 2148420 Validate: Disabled
test: 2148420 2148420 Timeout: 30s
test: 2148420 2148420 Timeout!
time: 30000329624
Total iters: 62708812
Iters/s: 2090293
Stalls: 0
ictx:26325328
vctx:62812354
return code for repetition 3: 0
time:30000329624
lps:2090293
Stalls: 0
ictx:26325328
vctx:62812354
------------------------------
test: 2246836 2246836 Profiler: Disabled
test: 2246836 2246836 Thread Model: pthread
test: 2246836 2246836 Pool: cycle
test: 2246836 2246836 Pool workers: 98304
test: 2246836 2246836 Total workers: 98400
test: 2246836 2246836 Cores: 96
test: 2246836 2246836 Per-core iters: Unlimited
test: 2246836 2246836 Per-core comput iters: 10
test: 2246836 2246836 Skew: none
test: 2246836 2246836 Validate: Disabled
test: 2246836 2246836 Timeout: 30s
test: 2246836 2246836 Timeout!
time: 30000295831
Total iters: 62729032
Iters/s: 2090967
Stalls: 0
ictx:26340192
vctx:62851576
return code for repetition 4: 0
time:30000295831
lps:2090967
Stalls: 0
ictx:26340192
vctx:62851576
------------------------------
test: 2345249 2345249 Profiler: Disabled
test: 2345249 2345249 Thread Model: pthread
test: 2345249 2345249 Pool: cycle
test: 2345249 2345249 Pool workers: 98304
test: 2345249 2345249 Total workers: 98400
test: 2345249 2345249 Cores: 96
test: 2345249 2345249 Per-core iters: Unlimited
test: 2345249 2345249 Per-core comput iters: 10
test: 2345249 2345249 Skew: none
test: 2345249 2345249 Validate: Disabled
test: 2345249 2345249 Timeout: 30s
test: 2345249 2345249 Timeout!
time: 30000263643
Total iters: 62755352
Iters/s: 2091845
Stalls: 0
ictx:26358355
vctx:62865878
return code for repetition 5: 0
time:30000263643
lps:2091845
Stalls: 0
ictx:26358355
vctx:62865878
------------------------------
test: 2443663 2443663 Profiler: Disabled
test: 2443663 2443663 Thread Model: pthread
test: 2443663 2443663 Pool: cycle
test: 2443663 2443663 Pool workers: 98304
test: 2443663 2443663 Total workers: 98400
test: 2443663 2443663 Cores: 96
test: 2443663 2443663 Per-core iters: Unlimited
test: 2443663 2443663 Per-core comput iters: 10
test: 2443663 2443663 Skew: none
test: 2443663 2443663 Validate: Disabled
test: 2443663 2443663 Timeout: 30s
test: 2443663 2443663 Timeout!
time: 30000368356
Total iters: 62750486
Iters/s: 2091682
Stalls: 0
ictx:26355539
vctx:62854350
return code for repetition 6: 0
time:30000368356
lps:2091682
Stalls: 0
ictx:26355539
vctx:62854350
------------------------------
test: 2542076 2542076 Profiler: Disabled
test: 2542076 2542076 Thread Model: pthread
test: 2542076 2542076 Pool: cycle
test: 2542076 2542076 Pool workers: 98304
test: 2542076 2542076 Total workers: 98400
test: 2542076 2542076 Cores: 96
test: 2542076 2542076 Per-core iters: Unlimited
test: 2542076 2542076 Per-core comput iters: 10
test: 2542076 2542076 Skew: none
test: 2542076 2542076 Validate: Disabled
test: 2542076 2542076 Timeout: 30s
test: 2542076 2542076 Timeout!
time: 30000242402
Total iters: 62719590
Iters/s: 2090653
Stalls: 0
ictx:26349067
vctx:62828643
return code for repetition 7: 0
time:30000242402
lps:2090653
Stalls: 0
ictx:26349067
vctx:62828643
------------------------------
test: 2640489 2640489 Profiler: Disabled
test: 2640489 2640489 Thread Model: pthread
test: 2640489 2640489 Pool: cycle
test: 2640489 2640489 Pool workers: 98304
test: 2640489 2640489 Total workers: 98400
test: 2640489 2640489 Cores: 96
test: 2640489 2640489 Per-core iters: Unlimited
test: 2640489 2640489 Per-core comput iters: 10
test: 2640489 2640489 Skew: none
test: 2640489 2640489 Validate: Disabled
test: 2640489 2640489 Timeout: 30s
test: 2640489 2640489 Timeout!
time: 30000079385
Total iters: 62694988
Iters/s: 2089832
Stalls: 0
ictx:26345177
vctx:62799980
return code for repetition 8: 0
time:30000079385
lps:2089832
Stalls: 0
ictx:26345177
vctx:62799980
------------------------------
test: 2738902 2738902 Profiler: Disabled
test: 2738902 2738902 Thread Model: pthread
test: 2738902 2738902 Pool: cycle
test: 2738902 2738902 Pool workers: 98304
test: 2738902 2738902 Total workers: 98400
test: 2738902 2738902 Cores: 96
test: 2738902 2738902 Per-core iters: Unlimited
test: 2738902 2738902 Per-core comput iters: 10
test: 2738902 2738902 Skew: none
test: 2738902 2738902 Validate: Disabled
test: 2738902 2738902 Timeout: 30s
test: 2738902 2738902 Timeout!
time: 30000233782
Total iters: 62735548
Iters/s: 2091184
Stalls: 0
ictx:26354770
vctx:62836781
return code for repetition 9: 0
time:30000233782
lps:2091184
Stalls: 0
ictx:26354770
vctx:62836781
------------------------------
test: 2837315 2837315 Profiler: Disabled
test: 2837315 2837315 Thread Model: pthread
test: 2837315 2837315 Pool: cycle
test: 2837315 2837315 Pool workers: 98304
test: 2837315 2837315 Total workers: 98400
test: 2837315 2837315 Cores: 96
test: 2837315 2837315 Per-core iters: Unlimited
test: 2837315 2837315 Per-core comput iters: 10
test: 2837315 2837315 Skew: none
test: 2837315 2837315 Validate: Disabled
test: 2837315 2837315 Timeout: 30s
test: 2837315 2837315 Timeout!
time: 30000244916
Total iters: 62719353
Iters/s: 2090645
Stalls: 0
ictx:26347256
vctx:62823462
return code for repetition 10: 0
time:30000244916
lps:2090645
Stalls: 0
ictx:26347256
vctx:62823462
------------------------------
