@startuml
!include style.iuml

' this is a comment

try_to_wake_up --> ttwu_queue
ttwu_queue --> ttwu_do_activate
ttwu_do_activate --> activate_task
activate_task --> enqueue_task
enqueue_task --> enqueue_task_fair
enqueue_task_fair --> enqueue_entity

try_to_wake_up: This is the main function to wake up a task
enqueue_entity: se->vruntime += ctf_rq->min_vruntime

note left of ttwu_do_activate: This sets ENQUEUE_WAKEUP\nand might set ENQUEUE_MIGRATED

@enduml
