@startuml
!include style.iuml

' this is a comment

__schedule --> pick_next_task
pick_next_task      --> pick_next_task_fair
pick_next_task_fair --> put_prev_entity
pick_next_task_fair --> set_next_entity
put_prev_entity     --> __enqueue_entity
set_next_entity     --> __dequeue_entity

__schedule: this is the main schedule function
__enqueue_entity: rbtree manipulation
__dequeue_entity: rbtree manipulation

note left of __schedule: this is a cool note

@enduml
