lock_stat version 0.4
-----------------------------------------------------------------------------------------------------------------------------------------------------------------------------------------------------------------------------
                              class name    con-bounces    contentions   waittime-min   waittime-max waittime-total   waittime-avg    acq-bounces   acquisitions   holdtime-min   holdtime-max holdtime-total   holdtime-avg
-----------------------------------------------------------------------------------------------------------------------------------------------------------------------------------------------------------------------------
                           callback_lock:       1896104        1896161           0.05         167.42     2652099.16           1.40       11226367       15733300           0.14          74.32     3233616.39           0.21
                       &sighand->siglock:        355540         596017           0.06         181.61     4311320.49           7.23        1041431        1279593           0.04          79.75      249441.66           0.19
                         tasklist_lock-W:        192292         192293           0.08        1104.52    24900841.27         129.49         194584         295221           0.19         109.60      369341.91           1.25
                         tasklist_lock-R:             0              0           0.00           0.00           0.00           0.00             10             21           0.08           1.22           8.03           0.38
                             &rq->__lock:        172774         177706           0.05          42.18      149694.34           0.84       16190107       41301895           0.06          82.73    21972233.30           0.53
                        &mm->mmap_lock-W:            29             30           0.39       37643.45      154273.78        5142.46            140         197667           0.09        1195.36      630820.79           3.19
                        &mm->mmap_lock-R:         97961          98414           0.20       71233.52  1851880220.56       18817.24         195956         393984           0.18       58272.06    12515346.27          31.77
                         &sem->wait_lock:         37143          37143           0.06        3397.63     1238804.93          33.35          99505         100452           0.05          84.28       48166.52           0.48
                            css_set_lock:         25214          25214           0.06          10.43        8355.77           0.33         194608         393644           0.05           3.86       73564.71           0.19
                           &n->list_lock:         22561          22561           0.06          36.72      118102.26           5.23          52719         145113           0.05           1.71       34458.53           0.24
                             &zone->lock:         21207          21264           0.07         966.83     1004769.52          47.25          27723          47212           0.06         205.30       65045.28           1.38
                          &vn->lazy.lock:         20012          20023           0.06          10.33       22277.15           1.11          60466          98504           0.06           3.20       22734.23           0.23
                          &vn->busy.lock:          2875           2876           0.06           2.86        1595.37           0.55          88173         394647           0.07          32.68      130814.59           0.33
                               &fs->lock:          2532           2532           0.05           0.87         340.12           0.13          98122         196818           0.05           3.29       20503.68           0.10
                              &tmc->lock:           646            650           0.07           1.85         328.08           0.50           1578         430101           0.05           1.94      106654.70           0.25
                              rcu_node_1:           412            434           0.11           2.59         194.62           0.45           6515          25086           0.05           2.19        5562.99           0.22
                   &futex_queues[i].lock:           328            328           0.06           1.32          76.46           0.23        8167466       15861329           0.05          80.59     3955911.13           0.25
                   &cfs_rq->removed.lock:           153            153           0.06           0.34          26.26           0.17       15485921       15690235           0.05          78.10     1840586.30           0.12
                            jiffies_lock:           100            103           0.22           7.03         168.93           1.64            655           9201           0.05           2.67        3318.17           0.36
                       &lruvec->lru_lock:            86             86           0.21         167.22        6961.89          80.95           6395         106395           0.11           7.61       58065.19           0.55
                             &p->pi_lock:            77             77           0.17           2.77          68.62           0.89        8341929       16641175           0.07          79.97    17077557.24           1.03
                            &group->lock:            41             45           0.08           0.69          13.67           0.30           5339         203254           0.06           1.10       40870.56           0.20
                             &base->lock:            26             28           0.08           0.81           8.16           0.29           2801         438997           0.05           2.31      175904.51           0.40
                          &group->lock/1:            19             19           0.11           0.41           4.50           0.24          15174         174759           0.05           0.80       17156.68           0.10
                             &pool->lock:            15             15           0.07           5.25          14.69           0.98            569          32594           0.06          15.34       15066.87           0.46
                           &base->lock/1:            15             15           0.09           0.28           2.91           0.19            140         430976           0.06           2.18      123061.95           0.29
                                cid_lock:            12             12           0.26           1.01           5.98           0.50            267            270           0.11           1.37         117.31           0.43
                              rcu_node_0:            10             10           0.16           1.02           3.89           0.39            533           5325           0.06           0.49         502.15           0.09
                                &u->lock:             3              3           0.08        3004.94        3005.24        1001.75            341            876           0.06        3009.31        3239.06           3.70
                        &rcu_state.gp_wq:             3              3           0.24           0.32           0.83           0.28            158           2585           0.07           4.35         446.26           0.17
                     &ei->socket.wq.wait:             2              2           0.26           0.27           0.53           0.27            247            569           0.07           6.68         218.54           0.38
                         &dentry->d_lock:             1              2           0.26           0.32           0.58           0.29            556           3637           0.06           4.46         352.08           0.10
                        &tty->write_wait:             1              1           0.67           0.67           0.67           0.67             28            217           0.07           0.69          21.34           0.10
                              &x->wait#5:             1              1           0.32           0.32           0.32           0.32         195297       15829846           0.06           3.41     1194229.62           0.08
                          &p->alloc_lock:             1              1           0.09           0.09           0.09           0.09          98424         590596           0.07          26.78       68425.80           0.12
                batched_entropy_u32.lock:             0              0           0.00           0.00           0.00           0.00              0          62426           0.05           1.14        4551.94           0.07
                   rcu_read_lock_sched-R:             0              0           0.00           0.00           0.00           0.00              0         393842           0.04          26.50       20508.70           0.05
                      cpu_hotplug_lock-R:             0              0           0.00           0.00           0.00           0.00              0             35           5.52         202.44         606.59          17.33
                             sysctl_lock:             0              0           0.00           0.00           0.00           0.00              4             60           0.07           0.22           4.78           0.08
                      hrtimer_bases.lock:             0              0           0.00           0.00           0.00           0.00             10        2328581           0.06           7.06      993232.48           0.43
                         timekeeper_lock:             0              0           0.00           0.00           0.00           0.00            553           9098           0.31           3.10        8008.54           0.88
                  tk_core.seq.seqcount-W:             0              0           0.00           0.00           0.00           0.00              0           9098           0.13           1.90        3166.30           0.35
                  tk_core.seq.seqcount-R:             0              0           0.00           0.00           0.00           0.00              0        4051002           0.04           2.47      215472.16           0.05
                  jiffies_seq.seqcount-W:             0              0           0.00           0.00           0.00           0.00              0           9098           0.05           1.57         496.25           0.05
                  jiffies_seq.seqcount-R:             0              0           0.00           0.00           0.00           0.00              0        1079396           0.04           2.41       60118.82           0.06
   (work_completion)(&(&kfence_timer)->w:             0              0           0.00           0.00           0.00           0.00              0            347           0.31           1.51         151.84           0.44
                         tty_ldiscs_lock:             0              0           0.00           0.00           0.00           0.00              2              4           0.07           0.31           0.60           0.15
                    percpu_counters_lock:             0              0           0.00           0.00           0.00           0.00             31             42           0.08           0.58          10.37           0.25
                         input_pool.lock:             0              0           0.00           0.00           0.00           0.00          98154         196839           0.07           1.50       26598.02           0.14
                              rtnl_mutex:             0              0           0.00           0.00           0.00           0.00              1              4           0.09          31.46          36.81           9.20
                                    lock:             0              0           0.00           0.00           0.00           0.00              0          98406           0.20           9.58       22717.74           0.23
                          (&timer.timer):             0              0           0.00           0.00           0.00           0.00              0           1710           0.05           4.33         924.41           0.54
                   &root->kernfs_rwsem-R:             0              0           0.00           0.00           0.00           0.00              4             21           0.08           0.34           2.76           0.13
                batched_entropy_u64.lock:             0              0           0.00           0.00           0.00           0.00              0          98426           0.05           1.41        8396.13           0.09
                          base_crng.lock:             0              0           0.00           0.00           0.00           0.00             12             12           0.36           0.60           5.51           0.46
             &root->kernfs_iattr_rwsem-R:             0              0           0.00           0.00           0.00           0.00              4             27           0.08           0.39           4.08           0.15
                              crngs.lock:             0              0           0.00           0.00           0.00           0.00              0          10865           0.17           1.08        1977.26           0.18
                 &sb->s_type->i_lock_key:             0              0           0.00           0.00           0.00           0.00              2              2           0.30           0.33           0.64           0.32
                    &____s->seqcount#2-R:             0              0           0.00           0.00           0.00           0.00              0            589           0.05           0.16          31.24           0.05
                            chrdevs_lock:             0              0           0.00           0.00           0.00           0.00              1              1           0.77           0.77           0.77           0.77
                 batched_entropy_u8.lock:             0              0           0.00           0.00           0.00           0.00              0            347           0.06           1.76          85.82           0.25
                             pidmap_lock:             0              0           0.00           0.00           0.00           0.00          98136         295218           0.08           6.33       37239.77           0.13
              cgroup_threadgroup_rwsem-R:             0              0           0.00           0.00           0.00           0.00              0         196812           0.28         181.33      955151.05           4.85
               &sb->s_type->i_lock_key#9:             0              0           0.00           0.00           0.00           0.00             48            750           0.05           0.75          82.74           0.11
                         vmap_purge_lock:             0              0           0.00           0.00           0.00           0.00              8             16        1521.30        3715.89       39862.13        2491.38
            sched_map-wait-type-override:             0              0           0.00           0.00           0.00           0.00              0        8171154           0.04          11.17      536242.97           0.07
                      nl_table_wait.lock:             0              0           0.00           0.00           0.00           0.00              3             15           0.09           0.21           1.61           0.11
                              fs_reclaim:             0              0           0.00           0.00           0.00           0.00              0       33546236           0.14          77.61     5018570.76           0.15
     mmu_notifier_invalidate_range_start:             0              0           0.00           0.00           0.00           0.00              0       33939262           0.04          77.35     1739652.04           0.05
           (wq_completion)events_unbound:             0              0           0.00           0.00           0.00           0.00              0            385           0.30         431.63        5856.74          15.21
                    kfence_freelist_lock:             0              0           0.00           0.00           0.00           0.00            375            694           0.09           0.88         272.59           0.39
                             &meta->lock:             0              0           0.00           0.00           0.00           0.00            344            694           0.15           1.96         551.66           0.79
                           &stop_pi_lock:             0              0           0.00           0.00           0.00           0.00            190          98512           0.27           2.28       57530.90           0.58
                          &stopper->lock:             0              0           0.00           0.00           0.00           0.00         195298         492562           0.06           1.80       54838.33           0.11
                   (wq_completion)events:             0              0           0.00           0.00           0.00           0.00              0           9564           1.32        3716.80      320089.57          33.47
                              &x->wait#2:             0              0           0.00           0.00           0.00           0.00              0           1728           0.07           1.64         164.36           0.10
                        &newf->file_lock:             0              0           0.00           0.00           0.00           0.00            103           1333           0.07           1.51         132.47           0.10
                  &sighand->signalfd_wqh:             0              0           0.00           0.00           0.00           0.00              1              1           1.88           1.88           1.88           1.88
                                  (null):             0              0           0.00           0.00           0.00           0.00              0         704074           0.05           3.68       90865.86           0.13
                     &rnp->nocb_gp_wq[1]:             0              0           0.00           0.00           0.00           0.00            154           1582           0.07           0.31         125.39           0.08
                          rcu_callback-R:             0              0           0.00           0.00           0.00           0.00              0        1284358           0.06        1422.93     1868891.07           1.46
                     &rnp->nocb_gp_wq[0]:             0              0           0.00           0.00           0.00           0.00            161           1575           0.07           0.31         129.86           0.08
                 &(&kfence_timer)->timer:             0              0           0.00           0.00           0.00           0.00              0            347           1.31           4.73         874.65           2.52
                   &s->s_inode_list_lock:             0              0           0.00           0.00           0.00           0.00             11             34           0.07           0.36           4.12           0.12
                              &pcp->lock:             0              0           0.00           0.00           0.00           0.00              2        1325027           0.05         980.69     1231666.31           0.93
                         rcu_read_lock-R:             0              0           0.00           0.00           0.00           0.00              0       62960727           0.04        6063.95     7587806.30           0.12
                      &lru->node[i].lock:             0              0           0.00           0.00           0.00           0.00              8             24           0.17           0.78           6.99           0.29
                     free_vmap_area_lock:             0              0           0.00           0.00           0.00           0.00             80          92795           0.25         594.49       56735.13           0.61
                  rename_lock.seqcount-R:             0              0           0.00           0.00           0.00           0.00              0             94           0.05           0.10           4.99           0.05
                    &____s->seqcount#3-R:             0              0           0.00           0.00           0.00           0.00              0            701           0.05           0.16          36.78           0.05
                   mount_lock.seqcount-R:             0              0           0.00           0.00           0.00           0.00              0             53           0.05           0.24           3.10           0.06
                        pcpu_alloc_mutex:             0              0           0.00           0.00           0.00           0.00              8             24           0.43           2.17          20.92           0.87
                           &k->list_lock:             0              0           0.00           0.00           0.00           0.00              1              4           0.07           1.23           1.50           0.37
                            ucounts_lock:             0              0           0.00           0.00           0.00           0.00              3              4           0.23           0.32           1.12           0.28
   (work_completion)(&(&tbl->managed_wor:             0              0           0.00           0.00           0.00           0.00              0             12           0.44           1.66          11.70           0.97
              (check_lifetime_work).work:             0              0           0.00           0.00           0.00           0.00              0              1          26.34          26.34          26.34          26.34
                           binfmt_lock-R:             0              0           0.00           0.00           0.00           0.00              3             24           0.07           0.31           2.92           0.12
                                     &wq:             0              0           0.00           0.00           0.00           0.00              0             50           0.08           0.11           4.40           0.09
                       &dev->devres_lock:             0              0           0.00           0.00           0.00           0.00              1            144           0.07           0.60          28.64           0.20
                                  lock#5:             0              0           0.00           0.00           0.00           0.00              0         394207           0.05          12.68       20943.32           0.05
                          &vn->pool_lock:             0              0           0.00           0.00           0.00           0.00            208         111056           0.06          23.75        9617.09           0.09
                         nl_table_lock-W:             0              0           0.00           0.00           0.00           0.00              0              6           0.07           0.12           0.51           0.09
                         nl_table_lock-R:             0              0           0.00           0.00           0.00           0.00              3              9           0.07           0.29           1.09           0.12
                       rhashtable_bucket:             0              0           0.00           0.00           0.00           0.00              0             12           0.05           0.28           0.98           0.08
                               tty_mutex:             0              0           0.00           0.00           0.00           0.00              2              3           2.04          73.73          79.83          26.61
                            uidhash_lock:             0              0           0.00           0.00           0.00           0.00              3              4           0.20           0.32           1.07           0.27
                          sb_writers#3-R:             0              0           0.00           0.00           0.00           0.00              0             43           0.08          10.69          25.38           0.59
                  &pgdat->kcompactd_wait:             0              0           0.00           0.00           0.00           0.00              0            213           0.07           0.36          27.30           0.13
              &type->i_mutex_dir_key#5-R:             0              0           0.00           0.00           0.00           0.00             15             66           0.35          41.09         337.45           5.11
                              &f->f_lock:             0              0           0.00           0.00           0.00           0.00              1             73           0.07           0.53           6.85           0.09
                &mapping->i_mmap_rwsem-W:             0              0           0.00           0.00           0.00           0.00            147            726           0.07           1.86         167.76           0.23
                &mapping->i_mmap_rwsem-R:             0              0           0.00           0.00           0.00           0.00              0             40           0.08           4.39          39.22           0.98
                     delayed_uprobe_lock:             0              0           0.00           0.00           0.00           0.00              9             12           0.09           0.31           2.60           0.22
                                     key:             0              0           0.00           0.00           0.00           0.00           1013           2312           0.07           3.15         373.96           0.16
                           cpu_asid_lock:             0              0           0.00           0.00           0.00           0.00              6             12           0.09           0.72           2.99           0.25
                            sb_writers-R:             0              0           0.00           0.00           0.00           0.00              0              2           0.32           2.08           2.40           1.20
                      bit_wait_table + i:             0              0           0.00           0.00           0.00           0.00              7             10           0.26           4.94          14.06           1.41
                   &fsnotify_mark_srcu-R:             0              0           0.00           0.00           0.00           0.00              0            163           0.05           7.90          22.99           0.14
               &sb->s_type->i_lock_key#1:             0              0           0.00           0.00           0.00           0.00              5             56           0.05           0.70           6.53           0.12
               &sb->s_type->i_lock_key#1:             0              0           0.00           0.00           0.00           0.00              5             40           0.05           0.68           6.55           0.16
   (wq_completion)events_power_efficient:             0              0           0.00           0.00           0.00           0.00              0             22           0.55       15999.21       52807.44        2400.34
                              &tbl->lock:             0              0           0.00           0.00           0.00           0.00              8             16           0.22           1.01           8.90           0.56
                               pcpu_lock:             0              0           0.00           0.00           0.00           0.00             31             84           0.25           2.63          60.57           0.72
                  init_fs.seq.seqcount-R:             0              0           0.00           0.00           0.00           0.00              0              8           0.05           0.16           0.63           0.08
                              &k->k_lock:             0              0           0.00           0.00           0.00           0.00              1            208           0.08           0.36          23.41           0.11
                                krc.lock:             0              0           0.00           0.00           0.00           0.00              0             63           0.09           1.71          17.96           0.29
               &sb->s_type->i_lock_key#3:             0              0           0.00           0.00           0.00           0.00              2              7           0.05           1.12           2.70           0.39
                         cache_list_lock:             0              0           0.00           0.00           0.00           0.00              1              1           0.90           0.90           0.90           0.90
   (work_completion)(&(&cache_cleaner)->:             0              0           0.00           0.00           0.00           0.00              0              1           2.12           2.12           2.12           2.12
                          &wb->list_lock:             0              0           0.00           0.00           0.00           0.00             14             46           0.06           2.61          22.54           0.49
                     &pgdat->kswapd_lock:             0              0           0.00           0.00           0.00           0.00              0             71           0.08           0.81          35.48           0.50
                &(&cache_cleaner)->timer:             0              0           0.00           0.00           0.00           0.00              0              1           2.43           2.43           2.43           2.43
             (wq_completion)mm_percpu_wq:             0              0           0.00           0.00           0.00           0.00              0            820           0.77          18.48        1349.98           1.65
                    (&dom->period_timer):             0              0           0.00           0.00           0.00           0.00              0             18           1.84           3.91          51.91           2.88
                &type->i_mutex_dir_key#3:             0              0           0.00           0.00           0.00           0.00              1              1           1.59           1.59           1.59           1.59
                      rcu_read_lock_bh-R:             0              0           0.00           0.00           0.00           0.00              0              5           1.33          13.88          29.97           5.99
                     &sig->wait_chldexit:             0              0           0.00           0.00           0.00           0.00             14             27           0.07           1.95           8.49           0.31
                  &tsk->futex_exit_mutex:             0              0           0.00           0.00           0.00           0.00          98409          98412           0.21          29.63       27128.00           0.28
                &child->perf_event_mutex:             0              0           0.00           0.00           0.00           0.00          98407          98408           0.08          16.31        9596.92           0.10
                        &pid->wait_pidfd:             0              0           0.00           0.00           0.00           0.00          98413         196813           0.08           1.29       19096.90           0.10
                    &____s->seqcount#4-W:             0              0           0.00           0.00           0.00           0.00              0          98412           0.09          79.07       62930.67           0.64
                    &____s->seqcount#4-R:             0              0           0.00           0.00           0.00           0.00              0              8           0.05           0.07           0.42           0.05
                             &prev->lock:             0              0           0.00           0.00           0.00           0.00              2              7           0.10           0.32           1.03           0.15
               &(&sig->stats_lock)->lock:             0              0           0.00           0.00           0.00           0.00          98038          98412           0.21          79.25       81155.21           0.82
                    &____s->seqcount#8-R:             0              0           0.00           0.00           0.00           0.00              0              3           0.17           0.17           0.51           0.17
                &iovad->iova_rbtree_lock:             0              0           0.00           0.00           0.00           0.00              7             33           0.07           2.39          10.76           0.33
                       &cpu_rcache->lock:             0              0           0.00           0.00           0.00           0.00              1             88           0.07           0.75          17.63           0.20
                           &rcache->lock:             0              0           0.00           0.00           0.00           0.00              7             33           0.07           0.28           3.51           0.11
                     (&tcp_orphan_timer):             0              0           0.00           0.00           0.00           0.00              0            294           1.04           4.31         411.91           1.40
         put_task_map-wait-type-override:             0              0           0.00           0.00           0.00           0.00              0          98418           1.29        1347.55     1299084.13          13.20
                               cdev_lock:             0              0           0.00           0.00           0.00           0.00              2              7           0.08           0.42           1.49           0.21
                             &port->lock:             0              0           0.00           0.00           0.00           0.00              5             38           0.07           3.37           9.60           0.25
                &ldata->atomic_read_lock:             0              0           0.00           0.00           0.00           0.00              0             10           0.66           2.59          15.58           1.56
                      &tty->legacy_mutex:             0              0           0.00           0.00           0.00           0.00              0              2           6.02          13.05          19.07           9.53
                         &tty->read_wait:             0              0           0.00           0.00           0.00           0.00             30            183           0.07           6.91          40.06           0.22
                       &tty->ldisc_sem-W:             0              0           0.00           0.00           0.00           0.00              0              3           2.36          13.30          19.00           6.33
                       &tty->ldisc_sem-R:             0              0           0.00           0.00           0.00           0.00             30            215           0.07         191.12         443.97           2.06
                   &tty->termios_rwsem-W:             0              0           0.00           0.00           0.00           0.00              3              7           0.07           1.62           2.49           0.36
                   &tty->termios_rwsem-R:             0              0           0.00           0.00           0.00           0.00             15             33           0.26           7.92          47.13           1.43
                        &tty->files_lock:             0              0           0.00           0.00           0.00           0.00             11             51           0.07           0.33           6.00           0.12
              drivers/char/random.c:1010:             0              0           0.00           0.00           0.00           0.00              0             27           0.36           1.74          20.57           0.76
                   &vma->vm_lock->lock-W:             0              0           0.00           0.00           0.00           0.00         197189         494378           0.06        4146.21       48471.99           0.10
                   &vma->vm_lock->lock-R:             0              0           0.00           0.00           0.00           0.00              0         217196           0.10          59.51      340831.45           1.57
                    &mm->page_table_lock:             0              0           0.00           0.00           0.00           0.00             96          99489           0.07           9.38        8085.10           0.08
                    ptlock_ptr(ptdesc)#2:             0              0           0.00           0.00           0.00           0.00         192988         512288           0.05        6063.59      225316.20           0.44
                        &anon_vma->rwsem:             0              0           0.00           0.00           0.00           0.00          99965         198643           0.07        6022.89       34293.63           0.17
                  &sig->cred_guard_mutex:             0              0           0.00           0.00           0.00           0.00              4              6          48.89         222.77         758.77         126.46
         init_binfmt_misc.entries_lock-R:             0              0           0.00           0.00           0.00           0.00              3              6           0.14           0.23           1.06           0.18
                  &sig->exec_update_lock:             0              0           0.00           0.00           0.00           0.00              4              6          29.87         200.66         644.30         107.38
                          &mm_list->lock:             0              0           0.00           0.00           0.00           0.00             13             24           0.10           0.38           4.40           0.18
                batched_entropy_u16.lock:             0              0           0.00           0.00           0.00           0.00              0             12           0.05           0.86           2.08           0.17
                  ptlock_ptr(ptdesc)#2/1:             0              0           0.00           0.00           0.00           0.00              2            146           0.09           1.63          33.07           0.23
                               uts_sem-R:             0              0           0.00           0.00           0.00           0.00              3              5           0.12           0.28           0.96           0.19
                          dup_mmap_sem-R:             0              0           0.00           0.00           0.00           0.00              0              6          89.54         224.57         909.34         151.56
                        &mm->mmap_lock/1:             0              0           0.00           0.00           0.00           0.00              0              6          88.89         223.62         904.20         150.70
                           redirect_lock:             0              0           0.00           0.00           0.00           0.00              1              1           0.16           0.16           0.16           0.16
                 &tty->atomic_write_lock:             0              0           0.00           0.00           0.00           0.00              0             23           1.30         190.32         267.00          11.61
                     &ldata->output_lock:             0              0           0.00           0.00           0.00           0.00              5             38           0.23           6.88          60.00           1.58
               &sb->s_type->i_lock_key#2:             0              0           0.00           0.00           0.00           0.00              0              8           0.05           0.57           1.17           0.15
              &sb->s_type->i_mutex_key#8:             0              0           0.00           0.00           0.00           0.00              0              1           2.33           2.33           2.33           2.33
               &sb->s_type->i_lock_key#2:             0              0           0.00           0.00           0.00           0.00             13            116           0.05           1.58          19.27           0.17
            &sb->s_type->i_mutex_key#9-W:             0              0           0.00           0.00           0.00           0.00              2              2           0.57           1.82           2.39           1.19
            &sb->s_type->i_mutex_key#9-R:             0              0           0.00           0.00           0.00           0.00              4             16           4.78          10.79         102.12           6.38
                        mm/vmstat.c:2022:             0              0           0.00           0.00           0.00           0.00              0             35           0.85           3.63         103.19           2.95
                         (shepherd).work:             0              0           0.00           0.00           0.00           0.00              0             35           5.86         203.48         636.90          18.20
   (work_completion)(&(({ do { const voi:             0              0           0.00           0.00           0.00           0.00              0            820           0.53          18.15        1092.04           1.33
                            &pipe->mutex:             0              0           0.00           0.00           0.00           0.00              7             23           0.08           1.54          10.33           0.45
                          &pipe->rd_wait:             0              0           0.00           0.00           0.00           0.00              5             56           0.07           0.32           5.55           0.10
                          &f->f_pos_lock:             0              0           0.00           0.00           0.00           0.00              0            120           0.09          41.55         311.32           2.59
                          sb_writers#4-R:             0              0           0.00           0.00           0.00           0.00              0              4           1.19           6.52          13.08           3.27
                              &pid->lock:             0              0           0.00           0.00           0.00           0.00              5             12           0.07           0.23           1.42           0.12
                                &p->lock:             0              0           0.00           0.00           0.00           0.00              0             54           0.08          12.17         107.00           1.98
                          &pipe->wr_wait:             0              0           0.00           0.00           0.00           0.00              3              7           0.08           0.21           0.79           0.11
                          sb_writers#5-R:             0              0           0.00           0.00           0.00           0.00              0              5           0.21           0.71           2.15           0.43
                           &mm->arg_lock:             0              0           0.00           0.00           0.00           0.00              3              7           0.16           0.32           1.54           0.22
                &net->unx.table.locks[i]:             0              0           0.00           0.00           0.00           0.00            124            238           0.08           0.45          33.98           0.14
                    &bsd_socket_locks[i]:             0              0           0.00           0.00           0.00           0.00             11             59           0.08           0.52           8.51           0.14
                       &sk->sk_peer_lock:             0              0           0.00           0.00           0.00           0.00             15            126           0.07           0.60          18.46           0.15
                      sk_lock-AF_NETLINK:             0              0           0.00           0.00           0.00           0.00              0              6           0.47           1.18           4.35           0.72
                        slock-AF_NETLINK:             0              0           0.00           0.00           0.00           0.00              0             12           0.05           0.08           0.75           0.06
                         task_group_lock:             0              0           0.00           0.00           0.00           0.00              4              4           0.27           0.37           1.29           0.32
                                &ep->mtx:             0              0           0.00           0.00           0.00           0.00              0            294           0.11          16.31         256.05           0.87
                             &ep->lock-W:             0              0           0.00           0.00           0.00           0.00             50            447           0.07           0.39          37.68           0.08
                             &ep->lock-R:             0              0           0.00           0.00           0.00           0.00             50             71           0.11           5.81          83.64           1.18
              &group->notification_waitq:             0              0           0.00           0.00           0.00           0.00              4              6           0.07           2.56           4.86           0.81
               &group->notification_lock:             0              0           0.00           0.00           0.00           0.00              4             10           0.07           0.27           1.38           0.14
               (work_completion)(&p->wq):             0              0           0.00           0.00           0.00           0.00              0           9504           1.68         767.13      278237.46          29.28
   &(({ do { const void *__vpp_verify = :             0              0           0.00           0.00           0.00           0.00              0            678           1.52           3.79        1881.56           2.78
   &kernfs_locks->open_file_mutex[count]:             0              0           0.00           0.00           0.00           0.00              1              3           0.14           0.50           1.04           0.35
                       &dentry->d_lock/1:             0              0           0.00           0.00           0.00           0.00             10            227           0.07           0.83          22.24           0.10
                        rlock-AF_NETLINK:             0              0           0.00           0.00           0.00           0.00              0             23           0.07           0.11           1.81           0.08
                                 &ep->wq:             0              0           0.00           0.00           0.00           0.00             23             50           0.75           5.55          61.30           1.23
                              &nlk->wait:             0              0           0.00           0.00           0.00           0.00              0             20           0.08           0.10           1.75           0.09
              &sb->s_type->i_mutex_key#1:             0              0           0.00           0.00           0.00           0.00              4              4           0.29           2.41           4.09           1.02
                               &ctx->wqh:             0              0           0.00           0.00           0.00           0.00              1             59           0.07           5.66          29.06           0.49
                       &ctx->cancel_lock:             0              0           0.00           0.00           0.00           0.00              1             27           0.07           0.21           2.45           0.09
                           rlock-AF_UNIX:             0              0           0.00           0.00           0.00           0.00            292            673           0.07           0.34          63.68           0.09
                              &u->iolock:             0              0           0.00           0.00           0.00           0.00             57            206           0.21           7.78         374.38           1.82
                     mm/memcontrol.c:680:             0              0           0.00           0.00           0.00           0.00              0             16           1.21           4.40          37.94           2.37
                (stats_flush_dwork).work:             0              0           0.00           0.00           0.00           0.00              0             16         311.14         431.18        5513.13         344.57
                       cgroup_rstat_lock:             0              0           0.00           0.00           0.00           0.00              2             16         309.96         430.01        5495.40         343.46
           &(&krcp->monitor_work)->timer:             0              0           0.00           0.00           0.00           0.00              0              7           2.07           3.15          18.20           2.60
   (work_completion)(&(&krcp->monitor_wo:             0              0           0.00           0.00           0.00           0.00              0              7           4.16          23.16          86.64          12.38
                         &nvmeq->sq_lock:             0              0           0.00           0.00           0.00           0.00              8             24           0.07           0.38           4.03           0.17
                &mapping->i_private_lock:             0              0           0.00           0.00           0.00           0.00              5             94           0.07           3.20          16.35           0.17
                   &ret->b_uptodate_lock:             0              0           0.00           0.00           0.00           0.00             64             99           0.07           2.76          13.06           0.13
                            &of->mutex#2:             0              0           0.00           0.00           0.00           0.00              0              2           0.24           0.57           0.81           0.41
                            file_rwsem-R:             0              0           0.00           0.00           0.00           0.00              0             44           0.31           1.23          16.42           0.37
                          &ctx->flc_lock:             0              0           0.00           0.00           0.00           0.00              9             53           0.07           0.87          12.32           0.23
                              &fll->lock:             0              0           0.00           0.00           0.00           0.00              1             44           0.07           0.19           3.37           0.08
                           &retval->lock:             0              0           0.00           0.00           0.00           0.00              4             14           0.07           0.41           2.76           0.20
                              &u->lock/1:             0              0           0.00           0.00           0.00           0.00              1             57           0.05           1.70          44.14           0.77
                     &sk->sk_peer_lock/1:             0              0           0.00           0.00           0.00           0.00              3             56           0.05           0.19           3.82           0.07
                           &ndev->lock-R:             0              0           0.00           0.00           0.00           0.00              2              2           0.19           0.30           0.49           0.24
                           &u->peer_wait:             0              0           0.00           0.00           0.00           0.00            212            292           0.08           0.25          32.84           0.11
                           clock-AF_UNIX:             0              0           0.00           0.00           0.00           0.00            104            175           0.07           0.35          16.14           0.09
              &sb->s_type->i_mutex_key#1:             0              0           0.00           0.00           0.00           0.00             48            125           1.10        3015.45        6410.35          51.28
                             fasync_lock:             0              0           0.00           0.00           0.00           0.00              3              4           0.08           0.30           0.74           0.18
    (work_completion)(&tty->hangup_work):             0              0           0.00           0.00           0.00           0.00              0              2           1.21           1.49           2.70           1.35
                          &wb->work_lock:             0              0           0.00           0.00           0.00           0.00             14             50           0.07           0.97          15.97           0.32
                 &s->s_inode_wblist_lock:             0              0           0.00           0.00           0.00           0.00              4              8           0.08           0.23           1.07           0.13
                     &bgl->locks[i].lock:             0              0           0.00           0.00           0.00           0.00              0              4           1.29           5.44          14.11           3.53
               &sb->s_type->i_lock_key#2:             0              0           0.00           0.00           0.00           0.00              7             36           0.05           0.96           8.49           0.24
              &sb->s_type->i_mutex_key#1:             0              0           0.00           0.00           0.00           0.00              0              1          15.53          15.53          15.53          15.53
                        &ei->i_es_lock-W:             0              0           0.00           0.00           0.00           0.00              1             20           0.07           1.24           5.03           0.25
                        &ei->i_es_lock-R:             0              0           0.00           0.00           0.00           0.00             42             89           0.08           0.74          16.33           0.18
                         &ei->i_data_sem:             0              0           0.00           0.00           0.00           0.00              6              9           0.07        1229.40        1274.88         141.65
                &journal->j_state_lock-W:             0              0           0.00           0.00           0.00           0.00              1             42           0.07           1.38          11.79           0.28
                &journal->j_state_lock-R:             0              0           0.00           0.00           0.00           0.00              3             13           0.08           0.79           3.26           0.25
            &journal->j_wait_done_commit:             0              0           0.00           0.00           0.00           0.00              0              4           0.08           0.19           0.55           0.14
                 &journal->j_wait_commit:             0              0           0.00           0.00           0.00           0.00              2              4           0.10           0.39           0.79           0.20
                 &type->s_umount_key#2-R:             0              0           0.00           0.00           0.00           0.00              0              3           4.73        2966.57        4631.40        1543.80
              &sbi->s_writepages_rwsem-R:             0              0           0.00           0.00           0.00           0.00              0              4           0.53        2963.43        4616.55        1154.14
              &type->i_mutex_dir_key#7-R:             0              0           0.00           0.00           0.00           0.00              0              2           0.24          21.92          22.15          11.08
                        clock-AF_NETLINK:             0              0           0.00           0.00           0.00           0.00              0              6           0.07           0.07           0.43           0.07
                         sk_lock-AF_INET:             0              0           0.00           0.00           0.00           0.00              0              5           5.37          38.57         107.57          21.51
                           slock-AF_INET:             0              0           0.00           0.00           0.00           0.00              4             13           0.05           0.58           2.32           0.18
                            (&cb->timer):             0              0           0.00           0.00           0.00           0.00              0              6           2.83           3.90          19.22           3.20
                 &(&wb->bw_dwork)->timer:             0              0           0.00           0.00           0.00           0.00              0              3           0.60           4.09           7.29           2.43
                (wq_completion)writeback:             0              0           0.00           0.00           0.00           0.00              0             27           0.40        2976.96        4918.53         182.17
   (work_completion)(&(&wb->bw_dwork)->w:             0              0           0.00           0.00           0.00           0.00              0              3           0.30           0.86           1.81           0.60
                          sb_writers#7-R:             0              0           0.00           0.00           0.00           0.00              0             97           0.08          15.95          24.77           0.26
                           jbd2_handle-R:             0              0           0.00           0.00           0.00           0.00              0              9           0.79        1262.03        1353.23         150.36
                      &ret->b_state_lock:             0              0           0.00           0.00           0.00           0.00             30             64           0.24           5.97          51.89           0.81
                   &journal->j_list_lock:             0              0           0.00           0.00           0.00           0.00              4             78           0.07           2.63          19.07           0.24
                &journal->j_wait_updates:             0              0           0.00           0.00           0.00           0.00              3             13           0.08           0.33           1.82           0.14
             mapping.invalidate_lock#2-W:             0              0           0.00           0.00           0.00           0.00              0              1          12.98          12.98          12.98          12.98
             mapping.invalidate_lock#2-R:             0              0           0.00           0.00           0.00           0.00              0             24           0.89           3.89          28.36           1.18
                         &ei->i_raw_lock:             0              0           0.00           0.00           0.00           0.00              6             21           0.15           2.98           9.71           0.46
                        &ei->xattr_sem-R:             0              0           0.00           0.00           0.00           0.00              4              4           0.22           0.35           1.16           0.29
                          sb_writers#8-R:             0              0           0.00           0.00           0.00           0.00              0              1           2.79           2.79           2.79           2.79
                     &tty->winsize_mutex:             0              0           0.00           0.00           0.00           0.00              2              5           0.13           0.51           1.40           0.28
 &sbi->s_mb_avg_fragment_size_locks[i]-R:             0              0           0.00           0.00           0.00           0.00              0              1           2.73           2.73           2.73           2.73
                     &sbi->s_orphan_lock:             0              0           0.00           0.00           0.00           0.00              0              2           0.28           0.89           1.17           0.58
                         &sbi->s_md_lock:             0              0           0.00           0.00           0.00           0.00              0              2           0.27           0.27           0.54           0.27
         &(ei->i_block_reservation_lock):             0              0           0.00           0.00           0.00           0.00              2              2           0.13           0.42           0.55           0.27
                  &ei->i_prealloc_lock-W:             0              0           0.00           0.00           0.00           0.00              0              3           0.07           0.12           0.31           0.10
                  &ei->i_prealloc_lock-R:             0              0           0.00           0.00           0.00           0.00              2              2           0.08           0.17           0.25           0.13
                &ei->i_completed_io_lock:             0              0           0.00           0.00           0.00           0.00              2              6           0.07           3.10           6.22           1.04
      (wq_completion)ext4-rsv-conversion:             0              0           0.00           0.00           0.00           0.00              0              3           7.76          32.89          67.97          22.66
   (work_completion)(&ei->i_rsv_conversi:             0              0           0.00           0.00           0.00           0.00              0              3           7.64          32.57          67.42          22.47
               &journal->j_wait_reserved:             0              0           0.00           0.00           0.00           0.00              0              3           0.09           0.24           0.42           0.14
                      &ext4__ioend_wq[i]:             0              0           0.00           0.00           0.00           0.00              1              3           0.09           0.20           0.38           0.13
                         &xattrs->lock-R:             0              0           0.00           0.00           0.00           0.00              4              7           0.07           0.50           1.56           0.22
                             iattr_mutex:             0              0           0.00           0.00           0.00           0.00              2              3           0.12           0.36           0.66           0.22
                                   &wq#2:             0              0           0.00           0.00           0.00           0.00              0             12           0.08           0.11           1.07           0.09
   per_cpu_ptr(&cgroup_rstat_cpu_lock, c:             0              0           0.00           0.00           0.00           0.00           3040           3136           0.07           2.13        1599.65           0.51
                              &buf->lock:             0              0           0.00           0.00           0.00           0.00              5             23           0.08           9.75          48.65           2.12
                          &xa->xa_lock#5:             0              0           0.00           0.00           0.00           0.00             69            388           0.07           3.15          93.56           0.24
                    kernfs_rename_lock-R:             0              0           0.00           0.00           0.00           0.00              6             20           0.12           2.24          12.47           0.62
                                  lock#4:             0              0           0.00           0.00           0.00           0.00              0         610962           0.05         170.53       83018.36           0.14
                         sk_lock-AF_UNIX:             0              0           0.00           0.00           0.00           0.00              0              4           0.68           1.20           3.94           0.99
                           slock-AF_UNIX:             0              0           0.00           0.00           0.00           0.00              0              8           0.05           0.09           0.53           0.07
                              stock_lock:             0              0           0.00           0.00           0.00           0.00              0        4594213           0.04           3.49      281810.56           0.06
                          blkg_stat_lock:             0              0           0.00           0.00           0.00           0.00              0              7           0.07           1.16           3.02           0.43
                                   key#8:             0              0           0.00           0.00           0.00           0.00              0              1           1.60           1.60           1.60           1.60
                                   key#9:             0              0           0.00           0.00           0.00           0.00              0              1           1.12           1.12           1.12           1.12
                                   key#1:             0              0           0.00           0.00           0.00           0.00              0              1           1.07           1.07           1.07           1.07
                          kn->active#4-R:             0              0           0.00           0.00           0.00           0.00              0              3           0.09           2.42           2.93           0.98
                   &audit_cmd_mutex.lock:             0              0           0.00           0.00           0.00           0.00              2              5           1.35           2.14           8.23           1.65
                         sb_pagefaults-R:             0              0           0.00           0.00           0.00           0.00              0             24           1.12          17.46          47.33           1.97
              (&journal->j_commit_timer):             0              0           0.00           0.00           0.00           0.00              0              4           0.05           5.37           6.93           1.73
     &journal->j_wait_transaction_locked:             0              0           0.00           0.00           0.00           0.00              2              2           0.29           0.31           0.61           0.30
                            &__ctx->lock:             0              0           0.00           0.00           0.00           0.00             10             10           0.11           0.33           1.63           0.16
                  (wq_completion)kblockd:             0              0           0.00           0.00           0.00           0.00              0              7           1.77          16.94          44.41           6.34
   (work_completion)(&(&hctx->run_work)-:             0              0           0.00           0.00           0.00           0.00              0              5           1.66          16.53          34.28           6.86
                                   key#1:             0              0           0.00           0.00           0.00           0.00              5             20           0.08           3.94          18.02           0.90
                     &journal->j_fc_wait:             0              0           0.00           0.00           0.00           0.00              0              2           0.09           0.12           0.21           0.11
                &journal->j_history_lock:             0              0           0.00           0.00           0.00           0.00              0              2           0.13           0.17           0.29           0.15
                 (netlink_chain).rwsem-R:             0              0           0.00           0.00           0.00           0.00              2              6           0.11           0.64           1.44           0.24
                                   key#1:             0              0           0.00           0.00           0.00           0.00              6             17           0.08           3.72          34.64           2.04
                                   key#1:             0              0           0.00           0.00           0.00           0.00              0             18           1.36           2.69          37.53           2.08
                      nlk_cb_mutex-ROUTE:             0              0           0.00           0.00           0.00           0.00              0              4           1.23          32.55          41.58          10.40
                    &(&wb->dwork)->timer:             0              0           0.00           0.00           0.00           0.00              0             24           0.56           7.02          66.30           2.76
   (work_completion)(&(&wb->dwork)->work:             0              0           0.00           0.00           0.00           0.00              0             24           2.42        2976.74        4908.89         204.54
                          &p->sequence-W:             0              0           0.00           0.00           0.00           0.00              0             15           0.07           0.24           2.04           0.14
                          &p->sequence-R:             0              0           0.00           0.00           0.00           0.00              0             42           0.05           0.28           3.30           0.08
            &(&tbl->managed_work)->timer:             0              0           0.00           0.00           0.00           0.00              0             12           0.57           4.02          20.63           1.72
               &(&gc_work->dwork)->timer:             0              0           0.00           0.00           0.00           0.00              0              1           5.27           5.27           5.27           5.27
   (work_completion)(&(&gc_work->dwork)-:             0              0           0.00           0.00           0.00           0.00              0              4        4768.21       15999.03       52755.80       13188.95
                    &____s->seqcount#6-R:             0              0           0.00           0.00           0.00           0.00              0         262155           0.04           0.21       13133.39           0.05
                      userns_state_mutex:             0              0           0.00           0.00           0.00           0.00              1              5           0.09           0.35           0.70           0.14
                               &pl->lock:             0              0           0.00           0.00           0.00           0.00              4             14           1.26           4.18          38.14           2.72
                         &tty->ctrl.lock:             0              0           0.00           0.00           0.00           0.00              7             16           0.07           0.50           3.44           0.22
                        &undo_list->lock:             0              0           0.00           0.00           0.00           0.00              1              1           0.31           0.31           0.31           0.31
                            &sch->q.lock:             0              0           0.00           0.00           0.00           0.00              0             10           0.07           0.80           3.05           0.31
                           _xmit_ETHER#2:             0              0           0.00           0.00           0.00           0.00              0              5           0.89          11.09          20.40           4.08
      per_cpu_ptr(&nft_counter_seq, cpu):             0              0           0.00           0.00           0.00           0.00              0             30           0.05           0.23           3.21           0.11
                              &n->lock-W:             0              0           0.00           0.00           0.00           0.00              2              2           1.10           1.17           2.27           1.13
                              &n->lock-R:             0              0           0.00           0.00           0.00           0.00              0              1           0.54           0.54           0.54           0.54
                    &____s->seqcount#7-R:             0              0           0.00           0.00           0.00           0.00              0              3           0.05           0.11           0.21           0.07
                 &type->s_umount_key#5-R:             0              0           0.00           0.00           0.00           0.00              0              1          65.50          65.50          65.50          65.50
                                   key#2:             0              0           0.00           0.00           0.00           0.00             70            771           0.07           0.26          62.71           0.08
                               &ct->lock:             0              0           0.00           0.00           0.00           0.00              6             11           0.10           1.07           5.57           0.51
                         slock-AF_INET/1:             0              0           0.00           0.00           0.00           0.00              3              6           1.23           9.21          29.21           4.87
                    &irq_desc_lock_class:             0              0           0.00           0.00           0.00           0.00              0            166           0.07           0.75          33.90           0.20
               (&adapter->timer_service):             0              0           0.00           0.00           0.00           0.00              0             36         154.39         173.01        5932.92         164.80
          (&icsk->icsk_retransmit_timer):             0              0           0.00           0.00           0.00           0.00              0              3           0.77           1.14           2.79           0.93
                           (&q->timeout):             0              0           0.00           0.00           0.00           0.00              0              2           3.97           4.07           8.04           4.02
     (work_completion)(&q->timeout_work):             0              0           0.00           0.00           0.00           0.00              0              2           3.68           4.37           8.05           4.03
                  (&dev->watchdog_timer):             0              0           0.00           0.00           0.00           0.00              0              7           1.64           1.94          12.84           1.83
                    &dev->tx_global_lock:             0              0           0.00           0.00           0.00           0.00              2              7           1.22           1.55           9.60           1.37
                 &(&tbl->gc_work)->timer:             0              0           0.00           0.00           0.00           0.00              0              4           0.64           4.48          10.13           2.53
   (work_completion)(&(&tbl->gc_work)->w:             0              0           0.00           0.00           0.00           0.00              0              4           0.58           1.56           4.15           1.04
                          &rq_wait->wait:             0              0           0.00           0.00           0.00           0.00              4             13           0.07           3.35          11.15           0.86
                             (&n->timer):             0              0           0.00           0.00           0.00           0.00              0              2           1.78           7.36           9.13           4.57
                                &c->lock:             0              0           0.00           0.00           0.00           0.00              0        1287651           0.04           4.25      102907.27           0.08
                            devpts_mutex:             0              0           0.00           0.00           0.00           0.00              2              3           0.10           3.43           4.49           1.50
                          &xa->xa_lock#1:             0              0           0.00           0.00           0.00           0.00              2              2           0.23           0.31           0.54           0.27
                    &tty->legacy_mutex/1:             0              0           0.00           0.00           0.00           0.00              5             10           0.36           6.13          17.14           1.71
               &o_tty->termios_rwsem/1-W:             0              0           0.00           0.00           0.00           0.00              0              6           0.08           2.39           3.74           0.62
               &o_tty->termios_rwsem/1-R:             0              0           0.00           0.00           0.00           0.00              6             26           0.08         189.01         253.90           9.77
           (work_completion)(&buf->work):             0              0           0.00           0.00           0.00           0.00              0             22           0.20          10.08          52.21           2.37
                  net/ipv4/devinet.c:474:             0              0           0.00           0.00           0.00           0.00              0              1           5.50           5.50           5.50           5.50
                         drain_vmap_work:             0              0           0.00           0.00           0.00           0.00              0             16        1521.54        3716.31       39867.52        2491.72
                       &tty->ldisc_sem/1:             0              0           0.00           0.00           0.00           0.00              0              1           2.07           2.07           2.07           2.07
